{"objects": [{"against_votes_count": 2, "resource_uri": "/api/v2/vote/12374/", "time": "2017-11-20T16:27:00", "for_votes_count": 12, "vote_number": 5, "meeting_number": 276, "importance": 1.0, "title": "\u05d0\u05d9\u05e9\u05d5\u05e8 \u05d4\u05d7\u05d5\u05e7 - \u05d4\u05e6\u05e2\u05ea \u05d7\u05d5\u05e7 \u05dc\u05d9\u05d9\u05e9\u05d5\u05dd \u05d4\u05d4\u05e1\u05db\u05dd \u05d1\u05d9\u05df \u05de\u05de\u05e9\u05dc\u05ea \u05de\u05d3\u05d9\u05e0\u05ea \u05d9\u05e9\u05e8\u05d0\u05dc \u05dc\u05d1\u05d9\u05df \u05de\u05de\u05e9\u05dc\u05ea \u05d4\u05e8\u05e4\u05d5\u05d1\u05dc\u05d9\u05e7\u05d4 \u05e9\u05dc \u05e7\u05e4\u05e8\u05d9\u05e1\u05d9\u05df \u05d1\u05d3\u05d1\u05e8 \u05d4\u05de\u05e2\u05de\u05d3 \u05e9\u05dc \u05db\u05d5\u05d7\u05d5\u05ea\u05d9\u05d4\u05df, \u05d4\u05ea\u05e9\u05e2\"\u05d7-2017 ", "controversy": 2, "vote_type": "law-approve", "votes_count": 14, "against_opposition": 2, "against_own_bill": 0, "against_coalition": 0}, {"against_votes_count": 2, "resource_uri": "/api/v2/vote/12373/", "time": "2017-11-20T16:26:00", "for_votes_count": 10, "vote_number": 4, "meeting_number": 276, "importance": 1.0, "title": "\u05e7\u05e8\u05d9\u05d0\u05d4 \u05e9\u05e0\u05d9\u05d9\u05d4 - \u05d4\u05e6\u05e2\u05ea \u05d7\u05d5\u05e7 \u05dc\u05d9\u05d9\u05e9\u05d5\u05dd \u05d4\u05d4\u05e1\u05db\u05dd \u05d1\u05d9\u05df \u05de\u05de\u05e9\u05dc\u05ea \u05de\u05d3\u05d9\u05e0\u05ea \u05d9\u05e9\u05e8\u05d0\u05dc \u05dc\u05d1\u05d9\u05df \u05de\u05de\u05e9\u05dc\u05ea \u05d4\u05e8\u05e4\u05d5\u05d1\u05dc\u05d9\u05e7\u05d4 \u05e9\u05dc \u05e7\u05e4\u05e8\u05d9\u05e1\u05d9\u05df \u05d1\u05d3\u05d1\u05e8 \u05d4\u05de\u05e2\u05de\u05d3 \u05e9\u05dc \u05db\u05d5\u05d7\u05d5\u05ea\u05d9\u05d4\u05df, \u05d4\u05ea\u05e9\u05e2\"\u05d7-2017 ", "controversy": 2, "vote_type": "second-call", "votes_count": 12, "against_opposition": 2, "against_own_bill": 0, "against_coalition": 0}, {"against_votes_count": 1, "resource_uri": "/api/v2/vote/12372/", "time": "2017-11-20T16:26:00", "for_votes_count": 11, "vote_number": 3, "meeting_number": 276, "importance": 1.0, "title": "\u05d0\u05d9\u05e9\u05d5\u05e8 \u05d4\u05d7\u05d5\u05e7 - \u05d4\u05e6\u05e2\u05ea \u05d7\u05d5\u05e7 \u05dc\u05d9\u05d9\u05e9\u05d5\u05dd \u05d4\u05d4\u05e1\u05db\u05dd \u05d1\u05d9\u05df \u05de\u05de\u05e9\u05dc\u05ea \u05de\u05d3\u05d9\u05e0\u05ea \u05d9\u05e9\u05e8\u05d0\u05dc \u05dc\u05d1\u05d9\u05df \u05de\u05de\u05e9\u05dc\u05ea \u05d4\u05e8\u05e4\u05d5\u05d1\u05dc\u05d9\u05e7\u05d4 \u05d4\u05d9\u05d5\u05d5\u05e0\u05d9\u05ea \u05d1\u05d3\u05d1\u05e8 \u05d4\u05de\u05e2\u05de\u05d3 \u05e9\u05dc \u05db\u05d5\u05d7\u05d5\u05ea\u05d9\u05d4\u05df, \u05d4\u05ea\u05e9\u05e2\"\u05d7-2017 ", "controversy": 1, "vote_type": "law-approve", "votes_count": 12, "against_opposition": 1, "against_own_bill": 0, "against_coalition": 0}, {"against_votes_count": 1, "resource_uri": "/api/v2/vote/12371/", "time": "2017-11-20T16:25:00", "for_votes_count": 12, "vote_number": 2, "meeting_number": 276, "importance": 1.0, "title": "\u05e7\u05e8\u05d9\u05d0\u05d4 \u05e9\u05e0\u05d9\u05d9\u05d4 - \u05d4\u05e6\u05e2\u05ea \u05d7\u05d5\u05e7 \u05dc\u05d9\u05d9\u05e9\u05d5\u05dd \u05d4\u05d4\u05e1\u05db\u05dd \u05d1\u05d9\u05df \u05de\u05de\u05e9\u05dc\u05ea \u05de\u05d3\u05d9\u05e0\u05ea \u05d9\u05e9\u05e8\u05d0\u05dc \u05dc\u05d1\u05d9\u05df \u05de\u05de\u05e9\u05dc\u05ea \u05d4\u05e8\u05e4\u05d5\u05d1\u05dc\u05d9\u05e7\u05d4 \u05d4\u05d9\u05d5\u05d5\u05e0\u05d9\u05ea \u05d1\u05d3\u05d1\u05e8 \u05d4\u05de\u05e2\u05de\u05d3 \u05e9\u05dc \u05db\u05d5\u05d7\u05d5\u05ea\u05d9\u05d4\u05df, \u05d4\u05ea\u05e9\u05e2\"\u05d7-2017 ", "controversy": 1, "vote_type": "second-call", "votes_count": 13, "against_opposition": 1, "against_own_bill": 0, "against_coalition": 0}, {"against_votes_count": 0, "resource_uri": "/api/v2/vote/12350/", "time": "2017-10-31T18:24:00", "for_votes_count": 8, "vote_number": 2, "meeting_number": 267, "importance": 1.0, "title": "\u05dc\u05d4\u05e2\u05d1\u05d9\u05e8 \u05d0\u05ea \u05d4\u05e0\u05d5\u05e9\u05d0 \u05dc\u05d5\u05d5\u05e2\u05d3\u05d4 - \u05d4\u05e6\u05e2\u05d5\u05ea \u05dc\u05e1\u05d3\u05e8-\u05d4\u05d9\u05d5\u05dd \u05d1\u05e0\u05d5\u05e9\u05d0: \"\u05e6\u05d9\u05d5\u05df \u05d9\u05d5\u05dd \u05ea\u05e8\u05d5\u05de\u05ea\u05dd \u05e9\u05dc \u05de\u05ea\u05e0\u05d3\u05d1\u05d9 \u05e9\u05e0\u05ea \u05d4\u05e9\u05d9\u05e8\u05d5\u05ea \u05d5\u05d7\u05e0\u05d9\u05db\u05d9 \u05d4\u05de\u05db\u05d9\u05e0\u05d5\u05ea \u05d4\u05e7\u05d3\u05dd \u05e6\u05d1\u05d0\u05d9\u05d5\u05ea\" ", "controversy": 0, "vote_type": "pass-to-committee", "votes_count": 8, "against_opposition": 0, "against_own_bill": 0, "against_coalition": 0}, {"against_votes_count": 3, "resource_uri": "/api/v2/vote/12343/", "time": "2017-10-25T11:57:00", "for_votes_count": 35, "vote_number": 1, "meeting_number": 265, "importance": 1.0, "title": "\u05dc\u05d4\u05e2\u05d1\u05d9\u05e8 \u05d0\u05ea \u05d4\u05e0\u05d5\u05e9\u05d0 \u05dc\u05d5\u05d5\u05e2\u05d3\u05d4 - \u05d4\u05e6\u05e2\u05ea \u05d7\u05d5\u05e7 \u05d4\u05d0\u05d6\u05e8\u05d7\u05d5\u05ea \u05d5\u05d4\u05db\u05e0\u05d9\u05e1\u05d4 \u05dc\u05d9\u05e9\u05e8\u05d0\u05dc (\u05d4\u05d5\u05e8\u05d0\u05ea \u05e9\u05e2\u05d4) (\u05ea\u05d9\u05e7\u05d5\u05df - \u05e9\u05d9\u05e0\u05d5\u05d9 \u05d4\u05d2\u05d9\u05dc \u05dc\u05d1\u05e7\u05e9\u05ea \u05d4\u05d9\u05ea\u05e8 \u05dc\u05e9\u05d4\u05d9\u05d9\u05d4 \u05d1\u05d9\u05e9\u05e8\u05d0\u05dc), \u05d4\u05ea\u05e9\u05e2\"\u05d6-2017", "controversy": 3, "vote_type": "pass-to-committee", "votes_count": 38, "against_opposition": 3, "against_own_bill": 0, "against_coalition": 0}, {"against_votes_count": 0, "resource_uri": "/api/v2/vote/12341/", "time": "2017-10-24T17:58:00", "for_votes_count": 7, "vote_number": 2, "meeting_number": 264, "importance": 1.0, "title": "\u05dc\u05d4\u05e2\u05d1\u05d9\u05e8 \u05d0\u05ea \u05d4\u05e0\u05d5\u05e9\u05d0 \u05dc\u05d5\u05d5\u05e2\u05d3\u05d4 - \u05d4\u05e6\u05e2\u05d5\u05ea \u05dc\u05e1\u05d3\u05e8-\u05d4\u05d9\u05d5\u05dd \u05d1\u05e0\u05d5\u05e9\u05d0: \"\u05e6\u05d9\u05d5\u05df \u05d9\u05d5\u05dd \u05d4\u05e2\u05dc\u05d9\u05d9\u05d4\"", "controversy": 0, "vote_type": "pass-to-committee", "votes_count": 7, "against_opposition": 0, "against_own_bill": 0, "against_coalition": 0}, {"against_votes_count": 0, "resource_uri": "/api/v2/vote/12339/", "time": "2017-09-18T13:15:00", "for_votes_count": 14, "vote_number": 2, "meeting_number": 261, "importance": 1.0, "title": "\u05dc\u05d4\u05e2\u05d1\u05d9\u05e8 \u05d0\u05ea \u05d4\u05e0\u05d5\u05e9\u05d0 \u05dc\u05d5\u05d5\u05e2\u05d3\u05d4 - \u05d4\u05e6\u05e2\u05d4 \u05dc\u05e1\u05d3\u05e8-\u05d4\u05d9\u05d5\u05dd \u05d1\u05e0\u05d5\u05e9\u05d0: \"\u05d4\u05de\u05e9\u05d1\u05e8 \u05d4\u05de\u05ea\u05de\u05e9\u05da \u05d1\u05de\u05d7\u05dc\u05e7\u05d4 \u05d4\u05d4\u05de\u05d8\u05d5\u05d0\u05d5\u05e0\u05e7\u05d5\u05dc\u05d5\u05d2\u05d9\u05ea \u05d1\u05d1\u05d9\u05ea \u05d4\u05d7\u05d5\u05dc\u05d9\u05dd \u05d4\u05d3\u05e1\u05d4  \u05e2\u05d9\u05df \u05db\u05e8\u05dd \u05d1\u05d9\u05e8\u05d5\u05e9\u05dc\u05d9\u05dd\" ", "controversy": 0, "vote_type": "pass-to-committee", "votes_count": 14, "against_opposition": 0, "against_own_bill": 0, "against_coalition": 0}, {"against_votes_count": 0, "resource_uri": "/api/v2/vote/12338/", "time": "2017-09-18T12:03:00", "for_votes_count": 49, "vote_number": 1, "meeting_number": 261, "importance": 1.0, "title": "\u05d4\u05e2\u05d1\u05e8\u05ea \u05d4\u05e0\u05d5\u05e9\u05d0 \u05dc\u05d5\u05d5\u05e2\u05d3\u05d4 \u05e9\u05ea\u05e7\u05d1\u05e2 \u05d5\u05e2\u05d3\u05ea \u05d4\u05db\u05e0\u05e1\u05ea - \u05d4\u05e6\u05e2\u05d4 \u05dc\u05e1\u05d3\u05e8-\u05d4\u05d9\u05d5\u05dd \u05d1\u05e0\u05d5\u05e9\u05d0: \"\u05d4\u05ea\u05e2\u05dc\u05dc\u05d5\u05ea \u05d4\u05de\u05de\u05e9\u05dc\u05d4 \u05d1\u05e0\u05db\u05d9\u05dd\" ", "controversy": 0, "vote_type": "", "votes_count": 49, "against_opposition": 0, "against_own_bill": 0, "against_coalition": 0}, {"against_votes_count": 1, "resource_uri": "/api/v2/vote/12337/", "time": "2017-08-02T12:36:00", "for_votes_count": 18, "vote_number": 1, "meeting_number": 260, "importance": 1.0, "title": "\u05dc\u05d4\u05e2\u05d1\u05d9\u05e8 \u05d0\u05ea \u05d4\u05e6\u05e2\u05ea \u05d4\u05d7\u05d5\u05e7 \u05dc\u05d5\u05d5\u05e2\u05d3\u05d4 - \u05d4\u05e6\u05e2\u05ea \u05d7\u05d5\u05e7 \u05dc\u05de\u05e0\u05d9\u05e2\u05ea \u05de\u05d7\u05dc\u05ea \u05d4\u05db\u05dc\u05d1\u05ea, \u05d4\u05ea\u05e9\u05e2\"\u05d6-2017 ", "controversy": 1, "vote_type": "pass-to-committee", "votes_count": 19, "against_opposition": 1, "against_own_bill": 0, "against_coalition": 0}, {"against_votes_count": 0, "resource_uri": "/api/v2/vote/12336/", "time": "2017-07-26T22:23:00", "for_votes_count": 3, "vote_number": 56, "meeting_number": 259, "importance": 1.0, "title": "\u05dc\u05d4\u05e2\u05d1\u05d9\u05e8 \u05d0\u05ea \u05d4\u05e6\u05e2\u05ea \u05d4\u05d7\u05d5\u05e7 \u05dc\u05d5\u05d5\u05e2\u05d3\u05d4 - \u05d4\u05e6\u05e2\u05ea \u05d7\u05d5\u05e7 \u05d4\u05de\u05d5\u05e2\u05e6\u05d4 \u05dc\u05d4\u05e9\u05db\u05dc\u05d4 \u05d2\u05d1\u05d5\u05d4\u05d4 (\u05ea\u05d9\u05e7\u05d5\u05df \u05de\u05e1` 20) (\u05e9\u05db\u05e8 \u05dc\u05d9\u05de\u05d5\u05d3 \u05dc\u05e1\u05d8\u05d5\u05d3\u05e0\u05d8\u05d9\u05dd \u05d1\u05d9\u05df-\u05dc\u05d0\u05d5\u05de\u05d9\u05d9\u05dd), \u05d4\u05ea\u05e9\u05e2\"\u05d6-2017", "controversy": 0, "vote_type": "pass-to-committee", "votes_count": 4, "against_opposition": 0, "against_own_bill": 0, "against_coalition": 0}, {"against_votes_count": 0, "resource_uri": "/api/v2/vote/12335/", "time": "2017-07-26T21:59:00", "for_votes_count": 21, "vote_number": 55, "meeting_number": 259, "importance": 1.0, "title": "\u05dc\u05d4\u05e2\u05d1\u05d9\u05e8 \u05d0\u05ea \u05d4\u05e6\u05e2\u05ea \u05d4\u05d7\u05d5\u05e7 \u05dc\u05d5\u05d5\u05e2\u05d3\u05d4 - \u05d4\u05e6\u05e2\u05ea \u05d7\u05d5\u05e7 \u05d4\u05d2\u05e0\u05ea \u05d4\u05e6\u05e8\u05db\u05df (\u05ea\u05d9\u05e7\u05d5\u05df \u05de\u05e1` 55) (\u05de\u05e2\u05e0\u05d4 \u05d0\u05e0\u05d5\u05e9\u05d9 \u05de\u05e7\u05e6\u05d5\u05e2\u05d9 \u05d1\u05de\u05e2\u05e8\u05db\u05ea \u05dc\u05e0\u05d9\u05ea\u05d5\u05d1 \u05e9\u05d9\u05d7\u05d5\u05ea), \u05d4\u05ea\u05e9\u05e2\"\u05d6\u20132017", "controversy": 0, "vote_type": "pass-to-committee", "votes_count": 22, "against_opposition": 0, "against_own_bill": 0, "against_coalition": 0}, {"against_votes_count": 12, "resource_uri": "/api/v2/vote/12334/", "time": "2017-07-26T21:33:00", "for_votes_count": 12, "vote_number": 54, "meeting_number": 259, "importance": 1.0, "title": "\u05dc\u05d4\u05e2\u05d1\u05d9\u05e8 \u05d0\u05ea \u05d4\u05e6\u05e2\u05ea \u05d4\u05d7\u05d5\u05e7 \u05dc\u05d5\u05d5\u05e2\u05d3\u05d4 - \u05d4\u05e6\u05e2\u05ea \u05d7\u05d5\u05e7 \u05dc\u05de\u05e0\u05d9\u05e2\u05ea \u05de\u05d7\u05dc\u05ea \u05d4\u05db\u05dc\u05d1\u05ea, \u05d4\u05ea\u05e9\u05e2\"\u05d6-2017", "controversy": 12, "vote_type": "pass-to-committee", "votes_count": 25, "against_opposition": 0, "against_own_bill": 0, "against_coalition": 0}, {"against_votes_count": 0, "resource_uri": "/api/v2/vote/12333/", "time": "2017-07-26T21:19:00", "for_votes_count": 28, "vote_number": 53, "meeting_number": 259, "importance": 1.0, "title": "\u05dc\u05d4\u05e2\u05d1\u05d9\u05e8 \u05d0\u05ea \u05d4\u05e6\u05e2\u05ea \u05d4\u05d7\u05d5\u05e7 \u05dc\u05d5\u05d5\u05e2\u05d3\u05d4 - \u05d4\u05e6\u05e2\u05ea \u05d7\u05d5\u05e7 \u05e1\u05dc\u05d9\u05e7\u05d4 \u05d0\u05dc\u05e7\u05d8\u05e8\u05d5\u05e0\u05d9\u05ea \u05e9\u05dc \u05e9\u05d9\u05e7\u05d9\u05dd (\u05ea\u05d9\u05e7\u05d5\u05df), \u05d4\u05ea\u05e9\u05e2\"\u05d6-2017", "controversy": 0, "vote_type": "pass-to-committee", "votes_count": 28, "against_opposition": 0, "against_own_bill": 0, "against_coalition": 0}, {"against_votes_count": 0, "resource_uri": "/api/v2/vote/12332/", "time": "2017-07-26T21:08:00", "for_votes_count": 53, "vote_number": 52, "meeting_number": 259, "importance": 1.0, "title": "\u05d0\u05d9\u05e9\u05d5\u05e8 \u05d4\u05d7\u05d5\u05e7 - \u05d4\u05e6\u05e2\u05ea \u05d7\u05d5\u05e7 \u05d4\u05ea\u05db\u05e0\u05d5\u05df \u05d5\u05d4\u05d1\u05e0\u05d9\u05d9\u05d4 (\u05ea\u05d9\u05e7\u05d5\u05df \u05de\u05e1` 117 - \u05d4\u05d5\u05e8\u05d0\u05ea \u05e9\u05e2\u05d4), \u05d4\u05ea\u05e9\u05e2\"\u05d6-2017", "controversy": 0, "vote_type": "law-approve", "votes_count": 53, "against_opposition": 0, "against_own_bill": 0, "against_coalition": 0}, {"against_votes_count": 0, "resource_uri": "/api/v2/vote/12331/", "time": "2017-07-26T21:08:00", "for_votes_count": 54, "vote_number": 51, "meeting_number": 259, "importance": 1.0, "title": "\u05e7\u05e8\u05d9\u05d0\u05d4 \u05e9\u05e0\u05d9\u05d9\u05d4 - \u05d4\u05e6\u05e2\u05ea \u05d7\u05d5\u05e7 \u05d4\u05ea\u05db\u05e0\u05d5\u05df \u05d5\u05d4\u05d1\u05e0\u05d9\u05d9\u05d4 (\u05ea\u05d9\u05e7\u05d5\u05df \u05de\u05e1` 117 - \u05d4\u05d5\u05e8\u05d0\u05ea \u05e9\u05e2\u05d4), \u05d4\u05ea\u05e9\u05e2\"\u05d6-2017", "controversy": 0, "vote_type": "second-call", "votes_count": 54, "against_opposition": 0, "against_own_bill": 0, "against_coalition": 0}, {"against_votes_count": 3, "resource_uri": "/api/v2/vote/12330/", "time": "2017-07-26T21:05:00", "for_votes_count": 41, "vote_number": 50, "meeting_number": 259, "importance": 1.0, "title": "\u05d0\u05d9\u05e9\u05d5\u05e8 \u05d4\u05d7\u05d5\u05e7 - \u05d4\u05e6\u05e2\u05ea \u05d7\u05d5\u05e7 \u05d1\u05e0\u05d9\u05de\u05d9\u05df \u05d6\u05d0\u05d1 \u05d4\u05e8\u05e6\u05dc (\u05d4\u05e0\u05e6\u05d7\u05ea \u05d6\u05db\u05e8\u05d5 \u05d5\u05e4\u05d5\u05e2\u05dc\u05d5) (\u05ea\u05d9\u05e7\u05d5\u05df \u05de\u05e1` 2), \u05d4\u05ea\u05e9\u05e2\"\u05d6-2017", "controversy": 3, "vote_type": "law-approve", "votes_count": 44, "against_opposition": 3, "against_own_bill": 0, "against_coalition": 0}, {"against_votes_count": 3, "resource_uri": "/api/v2/vote/12329/", "time": "2017-07-26T21:04:00", "for_votes_count": 35, "vote_number": 49, "meeting_number": 259, "importance": 1.0, "title": "\u05e7\u05e8\u05d9\u05d0\u05d4 \u05e9\u05e0\u05d9\u05d9\u05d4 - \u05d4\u05e6\u05e2\u05ea \u05d7\u05d5\u05e7 \u05d1\u05e0\u05d9\u05de\u05d9\u05df \u05d6\u05d0\u05d1 \u05d4\u05e8\u05e6\u05dc (\u05d4\u05e0\u05e6\u05d7\u05ea \u05d6\u05db\u05e8\u05d5 \u05d5\u05e4\u05d5\u05e2\u05dc\u05d5) (\u05ea\u05d9\u05e7\u05d5\u05df \u05de\u05e1` 2), \u05d4\u05ea\u05e9\u05e2\"\u05d6-2017", "controversy": 3, "vote_type": "second-call", "votes_count": 38, "against_opposition": 3, "against_own_bill": 0, "against_coalition": 0}, {"against_votes_count": 0, "resource_uri": "/api/v2/vote/12328/", "time": "2017-07-26T20:56:00", "for_votes_count": 53, "vote_number": 48, "meeting_number": 259, "importance": 1.0, "title": "\u05d0\u05d9\u05e9\u05d5\u05e8 \u05d4\u05d7\u05d5\u05e7 - \u05d4\u05e6\u05e2\u05ea \u05d7\u05d5\u05e7 \u05d9\u05d5\u05dd \u05d4\u05e0\u05d9\u05e6\u05d7\u05d5\u05df \u05e2\u05dc \u05d2\u05e8\u05de\u05e0\u05d9\u05d4 \u05d4\u05e0\u05d0\u05e6\u05d9\u05ea, \u05d4\u05ea\u05e9\u05e2\"\u05d6-2017", "controversy": 0, "vote_type": "law-approve", "votes_count": 53, "against_opposition": 0, "against_own_bill": 0, "against_coalition": 0}, {"against_votes_count": 0, "resource_uri": "/api/v2/vote/12327/", "time": "2017-07-26T20:55:00", "for_votes_count": 49, "vote_number": 47, "meeting_number": 259, "importance": 1.0, "title": "\u05e7\u05e8\u05d9\u05d0\u05d4 \u05e9\u05e0\u05d9\u05d9\u05d4 - \u05d4\u05e6\u05e2\u05ea \u05d7\u05d5\u05e7 \u05d9\u05d5\u05dd \u05d4\u05e0\u05d9\u05e6\u05d7\u05d5\u05df \u05e2\u05dc \u05d2\u05e8\u05de\u05e0\u05d9\u05d4 \u05d4\u05e0\u05d0\u05e6\u05d9\u05ea, \u05d4\u05ea\u05e9\u05e2\"\u05d6-2017", "controversy": 0, "vote_type": "second-call", "votes_count": 49, "against_opposition": 0, "against_own_bill": 0, "against_coalition": 0}], "meta": {"total_count": 12216, "previous": null, "limit": 20, "next": "/api/v2/vote/?limit=20&offset=20", "offset": 0}}